C:\Users\Abhishek Iyer\finstinct_projects\finstinct-pipeline-crawlers\finstinct-pipeline-webcrawlers\src\main\java\com\finstinct\pipeline\crawler\dao\UnlistedExceptionsDAOImpl.java
C:\Users\Abhishek Iyer\finstinct_projects\finstinct-pipeline-crawlers\finstinct-pipeline-webcrawlers\src\main\java\com\finstinct\pipeline\crawler\domain\UnlistedNewsExceptions.java
C:\Users\Abhishek Iyer\finstinct_projects\finstinct-pipeline-crawlers\finstinct-pipeline-webcrawlers\src\main\java\com\extremefin\finstinct\opennlp\summarization\DocProcessor.java
C:\Users\Abhishek Iyer\finstinct_projects\finstinct-pipeline-crawlers\finstinct-pipeline-webcrawlers\src\main\java\com\extremefin\finstinct\opennlp\summarization\preprocess\WordWeight.java
C:\Users\Abhishek Iyer\finstinct_projects\finstinct-pipeline-crawlers\finstinct-pipeline-webcrawlers\src\main\java\com\finstinct\pipeline\crawler\service\addCompany\GenericNewsSourceCrawlerAddCompany.java
C:\Users\Abhishek Iyer\finstinct_projects\finstinct-pipeline-crawlers\finstinct-pipeline-webcrawlers\src\main\java\com\extremefin\finstinct\opennlp\summarization\Score.java
C:\Users\Abhishek Iyer\finstinct_projects\finstinct-pipeline-crawlers\finstinct-pipeline-webcrawlers\src\main\java\com\finstinct\pipeline\crawler\events\Util.java
C:\Users\Abhishek Iyer\finstinct_projects\finstinct-pipeline-crawlers\finstinct-pipeline-webcrawlers\src\main\java\com\extremefin\finstinct\opennlp\summarization\preprocess\IDFWordWeight.java
C:\Users\Abhishek Iyer\finstinct_projects\finstinct-pipeline-crawlers\finstinct-pipeline-webcrawlers\src\main\java\com\finstinct\pipeline\crawler\dao\UnlistedExceptionsDAO.java
C:\Users\Abhishek Iyer\finstinct_projects\finstinct-pipeline-crawlers\finstinct-pipeline-webcrawlers\src\main\java\com\extremefin\finstinct\opennlp\summarization\preprocess\StopWords.java
C:\Users\Abhishek Iyer\finstinct_projects\finstinct-pipeline-crawlers\finstinct-pipeline-webcrawlers\src\main\java\com\finstinct\pipeline\crawler\domain\document\HistoricalNewsItemHolder2.java
C:\Users\Abhishek Iyer\finstinct_projects\finstinct-pipeline-crawlers\finstinct-pipeline-webcrawlers\src\main\java\com\extremefin\finstinct\opennlp\summarization\preprocess\PorterStemmer.java
C:\Users\Abhishek Iyer\finstinct_projects\finstinct-pipeline-crawlers\finstinct-pipeline-webcrawlers\src\main\java\com\extremefin\finstinct\opennlp\summarization\lexicalchaining\OpenNLPPOSTagger.java
C:\Users\Abhishek Iyer\finstinct_projects\finstinct-pipeline-crawlers\finstinct-pipeline-webcrawlers\src\main\java\com\finstinct\pipeline\crawler\service\addCompany\GenericNewsLoader.java
C:\Users\Abhishek Iyer\finstinct_projects\finstinct-pipeline-crawlers\finstinct-pipeline-webcrawlers\src\main\java\com\finstinct\pipeline\crawler\service\Scheduler.java
C:\Users\Abhishek Iyer\finstinct_projects\finstinct-pipeline-crawlers\finstinct-pipeline-webcrawlers\src\main\java\com\finstinct\pipeline\crawler\dao\UnlistedNewsSourcesDAO.java
C:\Users\Abhishek Iyer\finstinct_projects\finstinct-pipeline-crawlers\finstinct-pipeline-webcrawlers\src\main\java\com\extremefin\finstinct\opennlp\summarization\lexicalchaining\WordRelationshipDetermination.java
C:\Users\Abhishek Iyer\finstinct_projects\finstinct-pipeline-crawlers\finstinct-pipeline-webcrawlers\src\main\java\com\extremefin\finstinct\opennlp\summarization\preprocess\OrganizationFinder.java
C:\Users\Abhishek Iyer\finstinct_projects\finstinct-pipeline-crawlers\finstinct-pipeline-webcrawlers\src\main\java\com\finstinct\pipeline\crawler\dao\HistoricalNewsItemDAO.java
C:\Users\Abhishek Iyer\finstinct_projects\finstinct-pipeline-crawlers\finstinct-pipeline-webcrawlers\src\main\java\com\extremefin\finstinct\opennlp\summarization\lexicalchaining\Word.java
C:\Users\Abhishek Iyer\finstinct_projects\finstinct-pipeline-crawlers\finstinct-pipeline-webcrawlers\src\main\java\com\finstinct\pipeline\crawler\domain\HistoricalNewsItem.java
C:\Users\Abhishek Iyer\finstinct_projects\finstinct-pipeline-crawlers\finstinct-pipeline-webcrawlers\src\main\java\com\finstinct\pipeline\crawler\historicalnews\HistoricalNewsFeedItems.java
C:\Users\Abhishek Iyer\finstinct_projects\finstinct-pipeline-crawlers\finstinct-pipeline-webcrawlers\src\main\java\com\extremefin\finstinct\opennlp\summarization\lexicalchaining\POSTagger.java
C:\Users\Abhishek Iyer\finstinct_projects\finstinct-pipeline-crawlers\finstinct-pipeline-webcrawlers\src\main\java\com\finstinct\pipeline\crawler\domain\document\HistoricalNewsItemHolder.java
C:\Users\Abhishek Iyer\finstinct_projects\finstinct-pipeline-crawlers\finstinct-pipeline-webcrawlers\src\main\java\com\finstinct\pipeline\crawler\domain\EntityNewsItem.java
C:\Users\Abhishek Iyer\finstinct_projects\finstinct-pipeline-crawlers\finstinct-pipeline-webcrawlers\src\main\java\com\finstinct\pipeline\crawler\env\processors\SchedulerConfig.java
C:\Users\Abhishek Iyer\finstinct_projects\finstinct-pipeline-crawlers\finstinct-pipeline-webcrawlers\src\main\java\com\extremefin\finstinct\opennlp\summarization\lexicalchaining\LexicalChainingSummarizer.java
C:\Users\Abhishek Iyer\finstinct_projects\finstinct-pipeline-crawlers\finstinct-pipeline-webcrawlers\src\main\java\com\extremefin\finstinct\opennlp\summarization\meta\MetaSummarizer.java
C:\Users\Abhishek Iyer\finstinct_projects\finstinct-pipeline-crawlers\finstinct-pipeline-webcrawlers\src\main\java\com\finstinct\pipeline\crawler\dao\HistoricalNewsItemDAOImpl.java
C:\Users\Abhishek Iyer\finstinct_projects\finstinct-pipeline-crawlers\finstinct-pipeline-webcrawlers\src\main\java\com\finstinct\pipeline\crawler\dao\UnlistedNewsCompaniesDAO.java
C:\Users\Abhishek Iyer\finstinct_projects\finstinct-pipeline-crawlers\finstinct-pipeline-webcrawlers\src\main\java\com\finstinct\pipeline\crawler\dao\HistoricalNewsCrawlerLogDAO.java
C:\Users\Abhishek Iyer\finstinct_projects\finstinct-pipeline-crawlers\finstinct-pipeline-webcrawlers\src\main\java\com\finstinct\pipeline\crawler\historicalnews\UnlistedEventExtractor.java
C:\Users\Abhishek Iyer\finstinct_projects\finstinct-pipeline-crawlers\finstinct-pipeline-webcrawlers\src\main\java\com\finstinct\pipeline\crawler\dao\BaseDAOImpl.java
C:\Users\Abhishek Iyer\finstinct_projects\finstinct-pipeline-crawlers\finstinct-pipeline-webcrawlers\src\main\java\com\finstinct\pipeline\crawler\dao\BaseDAO.java
C:\Users\Abhishek Iyer\finstinct_projects\finstinct-pipeline-crawlers\finstinct-pipeline-webcrawlers\src\main\java\com\extremefin\finstinct\opennlp\summarization\textrank\TextRank.java
C:\Users\Abhishek Iyer\finstinct_projects\finstinct-pipeline-crawlers\finstinct-pipeline-webcrawlers\src\main\java\com\finstinct\pipeline\crawler\domain\EnterpriseUserSentimentContextMapping.java
C:\Users\Abhishek Iyer\finstinct_projects\finstinct-pipeline-crawlers\finstinct-pipeline-webcrawlers\src\main\java\com\extremefin\finstinct\opennlp\summarization\preprocess\DefaultDocProcessor.java
C:\Users\Abhishek Iyer\finstinct_projects\finstinct-pipeline-crawlers\finstinct-pipeline-webcrawlers\src\main\java\com\finstinct\pipeline\crawler\dao\UnlistedCompaniesSubscriptionDAO.java
C:\Users\Abhishek Iyer\finstinct_projects\finstinct-pipeline-crawlers\finstinct-pipeline-webcrawlers\src\main\java\com\finstinct\pipeline\crawler\dao\UnlistedNewsSourcesDAOImpl.java
C:\Users\Abhishek Iyer\finstinct_projects\finstinct-pipeline-crawlers\finstinct-pipeline-webcrawlers\src\main\java\com\finstinct\pipeline\crawler\domain\UnlistedNewsSourceSchedulerConfig.java
C:\Users\Abhishek Iyer\finstinct_projects\finstinct-pipeline-crawlers\finstinct-pipeline-webcrawlers\src\main\java\com\finstinct\pipeline\crawler\dao\document\SpringDataMongoConfig.java
C:\Users\Abhishek Iyer\finstinct_projects\finstinct-pipeline-crawlers\finstinct-pipeline-webcrawlers\src\main\java\com\finstinct\pipeline\crawler\domain\CustomizedSummaryReport.java
C:\Users\Abhishek Iyer\finstinct_projects\finstinct-pipeline-crawlers\finstinct-pipeline-webcrawlers\src\main\java\com\finstinct\pipeline\crawler\domain\UnlistedNewsCompanies.java
C:\Users\Abhishek Iyer\finstinct_projects\finstinct-pipeline-crawlers\finstinct-pipeline-webcrawlers\src\main\java\com\extremefin\finstinct\opennlp\summarization\lexicalchaining\LexicalChain.java
C:\Users\Abhishek Iyer\finstinct_projects\finstinct-pipeline-crawlers\finstinct-pipeline-webcrawlers\src\main\java\com\finstinct\pipeline\crawler\service\DateUtil.java
C:\Users\Abhishek Iyer\finstinct_projects\finstinct-pipeline-crawlers\finstinct-pipeline-webcrawlers\src\main\java\com\finstinct\pipeline\crawler\domain\HistoricalCustomizedSummaryReport.java
C:\Users\Abhishek Iyer\finstinct_projects\finstinct-pipeline-crawlers\finstinct-pipeline-webcrawlers\src\main\java\com\finstinct\pipeline\crawler\domain\document\UnlistedHistoricalNewsSentimentsAndContext.java
C:\Users\Abhishek Iyer\finstinct_projects\finstinct-pipeline-crawlers\finstinct-pipeline-webcrawlers\src\main\java\com\finstinct\pipeline\crawler\domain\HistoricalNewsCrawlerLog.java
C:\Users\Abhishek Iyer\finstinct_projects\finstinct-pipeline-crawlers\finstinct-pipeline-webcrawlers\src\main\java\com\finstinct\pipeline\crawler\service\addCompany\HistoricalNewsItemPersisterAddCompany.java
C:\Users\Abhishek Iyer\finstinct_projects\finstinct-pipeline-crawlers\finstinct-pipeline-webcrawlers\src\main\java\com\finstinct\pipeline\crawler\service\SchedulerImpl.java
C:\Users\Abhishek Iyer\finstinct_projects\finstinct-pipeline-crawlers\finstinct-pipeline-webcrawlers\src\main\java\com\extremefin\finstinct\opennlp\summarization\textrank\TextRankSummarizer.java
C:\Users\Abhishek Iyer\finstinct_projects\finstinct-pipeline-crawlers\finstinct-pipeline-webcrawlers\src\main\java\com\finstinct\pipeline\crawler\controllers\CrawlerController.java
C:\Users\Abhishek Iyer\finstinct_projects\finstinct-pipeline-crawlers\finstinct-pipeline-webcrawlers\src\main\java\com\finstinct\pipeline\crawler\domain\UnlistedCompaniesSubscription.java
C:\Users\Abhishek Iyer\finstinct_projects\finstinct-pipeline-crawlers\finstinct-pipeline-webcrawlers\src\main\java\com\extremefin\finstinct\opennlp\summarization\lexicalchaining\WordnetWord.java
C:\Users\Abhishek Iyer\finstinct_projects\finstinct-pipeline-crawlers\finstinct-pipeline-webcrawlers\src\main\java\com\extremefin\finstinct\opennlp\summarization\lexicalchaining\WordRelation.java
C:\Users\Abhishek Iyer\finstinct_projects\finstinct-pipeline-crawlers\finstinct-pipeline-webcrawlers\src\main\java\com\extremefin\finstinct\opennlp\summarization\lexicalchaining\LexChainingKeywordExtractor.java
C:\Users\Abhishek Iyer\finstinct_projects\finstinct-pipeline-crawlers\finstinct-pipeline-webcrawlers\src\main\java\com\finstinct\pipeline\crawler\domain\document\HistoricalNewsItemDoc.java
C:\Users\Abhishek Iyer\finstinct_projects\finstinct-pipeline-crawlers\finstinct-pipeline-webcrawlers\src\main\java\com\finstinct\pipeline\crawler\dao\UnlistedCompaniesSubscriptionDAOImpl.java
C:\Users\Abhishek Iyer\finstinct_projects\finstinct-pipeline-crawlers\finstinct-pipeline-webcrawlers\src\main\java\com\extremefin\finstinct\opennlp\summarization\Summarizer.java
C:\Users\Abhishek Iyer\finstinct_projects\finstinct-pipeline-crawlers\finstinct-pipeline-webcrawlers\src\main\java\com\finstinct\pipeline\crawler\dao\UnlistedNewsCompaniesDAOImpl.java
C:\Users\Abhishek Iyer\finstinct_projects\finstinct-pipeline-crawlers\finstinct-pipeline-webcrawlers\src\main\java\com\extremefin\finstinct\opennlp\summarization\Sentence.java
C:\Users\Abhishek Iyer\finstinct_projects\finstinct-pipeline-crawlers\finstinct-pipeline-webcrawlers\src\main\java\com\finstinct\pipeline\crawler\dao\document\DocumentStoreImpl.java
C:\Users\Abhishek Iyer\finstinct_projects\finstinct-pipeline-crawlers\finstinct-pipeline-webcrawlers\src\main\java\com\finstinct\pipeline\crawler\domain\document\BaseDocumentEntity.java
C:\Users\Abhishek Iyer\finstinct_projects\finstinct-pipeline-crawlers\finstinct-pipeline-webcrawlers\src\main\java\com\finstinct\pipeline\crawler\dao\HistoricalNewsCrawlerLogDAOImpl.java
C:\Users\Abhishek Iyer\finstinct_projects\finstinct-pipeline-crawlers\finstinct-pipeline-webcrawlers\src\main\java\com\finstinct\pipeline\crawler\historicalnews\ExtractedNewsContents.java
C:\Users\Abhishek Iyer\finstinct_projects\finstinct-pipeline-crawlers\finstinct-pipeline-webcrawlers\src\main\java\com\finstinct\pipeline\crawler\service\ScheduledTaskErrorHandler.java
C:\Users\Abhishek Iyer\finstinct_projects\finstinct-pipeline-crawlers\finstinct-pipeline-webcrawlers\src\main\java\com\finstinct\pipeline\crawler\domain\UnlistedNewsSource.java
C:\Users\Abhishek Iyer\finstinct_projects\finstinct-pipeline-crawlers\finstinct-pipeline-webcrawlers\src\main\java\com\finstinct\pipeline\crawler\dao\document\DocumentStore.java
C:\Users\Abhishek Iyer\finstinct_projects\finstinct-pipeline-crawlers\finstinct-pipeline-webcrawlers\src\main\java\com\finstinct\pipeline\crawler\domain\EnterpriseCompanyEmailMapping.java
